0.5 0.98 
0.47 0.44 
0.16 0.3 
0.43 0.70 
0.05 0.66 
0.71 0.74 
0.94 0.73 
0.37 0.9 
0.2 0.14 
0.23 0.9 
0.04 0.91
0.33 0.42 
0.56 0.42 
0.51 0.93 
0.01 0.58 
0.72 0.98 
0.71 0.34 
0.85 0.36 
0.12 0.51 
0.81 0.29 